<?xml version="1.0" encoding="UTF-8" standalone="no"?>
<svg width="190px" height="29px" viewBox="0 0 190 29" version="1.1" xmlns="http://www.w3.org/2000/svg" xmlns:xlink="http://www.w3.org/1999/xlink" xmlns:sketch="http://www.bohemiancoding.com/sketch/ns">
    <!-- Generator: Sketch 3.3.1 (12005) - http://www.bohemiancoding.com/sketch -->
    <title>bitfiner-logo</title>
    <desc>Created with Sketch.</desc>
    <defs></defs>
    <g id="Page-1" stroke="none" stroke-width="1" fill="none" fill-rule="evenodd" sketch:type="MSPage">
        <g id="bitfiner-logosvg" sketch:type="MSLayerGroup">
            <path d="M177.866,23.628 C177.866,25.837 178.116,27.545 178.7,28.754 L172.491,28.754 C172.241,27.379 172.157,25.879 172.116,21.711 C172.116,19.044 171.282,17.378 169.199,17.211 C168.448,17.169 167.74,17.169 166.99,17.169 L163.615,17.169 L161.573,28.754 L155.822,28.754 L160.906,0 L171.407,0 C173.074,0 174.158,0.042 175.574,0.209 C179.158,0.625 181.908,2.501 181.908,6.46 C181.908,11.085 178.95,13.877 174.616,14.961 C177.075,15.794 177.866,18.086 177.866,23.628 L177.866,23.628 Z M175.616,7.835 C175.616,5.709 174.324,4.834 172.449,4.626 C171.782,4.543 171.074,4.501 170.074,4.501 L165.865,4.501 L164.365,12.877 L168.365,12.877 C169.365,12.877 170.032,12.877 170.74,12.835 C173.324,12.585 175.616,11.168 175.616,7.835 L175.616,7.835 Z M140.157,4.501 L138.823,12.085 L152.366,12.085 L151.575,16.627 L137.99,16.627 L136.656,24.212 L151.658,24.212 L150.825,28.754 L130.114,28.754 L135.198,0 L155.492,0 L154.7,4.501 L140.157,4.501 L140.157,4.501 Z M115.825,28.754 L107.99,6.918 L104.198,28.754 L98.448,28.754 L103.531,0 L111.157,0 L119.158,22.378 L123.034,0 L128.785,0 L123.701,28.754 L115.825,28.754 L115.825,28.754 Z M86.281,28.754 L91.365,0 L97.116,0 L92.032,28.754 L86.281,28.754 L86.281,28.754 Z M71.492,4.501 L70.158,12.085 L83.285,12.085 L82.493,16.627 L69.325,16.627 L67.199,28.754 L61.449,28.754 L66.533,0 L86.827,0 L86.035,4.501 L71.492,4.501 L71.492,4.501 Z M52.034,2.126 L47.325,28.754 L44.741,28.754 L49.45,2.126 L38.866,2.126 L39.282,0 L62.91,0 L62.535,2.126 L52.034,2.126 L52.034,2.126 Z M27.116,28.754 L32.2,0 L34.783,0 L29.699,28.754 L27.116,28.754 L27.116,28.754 Z M22.369,19.836 C22.369,25.337 17.743,28.045 13.159,28.587 C11.867,28.754 10.992,28.754 9.784,28.754 L0.991,28.754 L6.075,0 L14.076,0 C15.368,0 16.243,0 17.618,0.125 C21.452,0.584 23.702,2.584 23.702,5.876 C23.702,10.085 21.16,12.544 17.285,13.544 C20.618,14.377 22.369,16.502 22.369,19.836 L22.369,19.836 Z M6.033,14.836 L3.95,26.587 L10.576,26.587 C11.242,26.587 11.992,26.587 12.534,26.545 C16.035,26.254 19.535,24.128 19.535,19.669 C19.535,16.961 17.952,15.252 14.784,14.961 C13.868,14.877 13.243,14.836 12.576,14.836 L6.033,14.836 L6.033,14.836 Z M20.827,6.418 C20.827,3.584 18.91,2.417 16.326,2.209 C15.493,2.167 14.701,2.167 13.909,2.167 L8.284,2.167 L6.408,12.71 L12.409,12.71 C13.118,12.71 13.826,12.669 14.743,12.585 C18.41,12.169 20.827,10.043 20.827,6.418 L20.827,6.418 Z" id="path-1" fill="#211E1E" sketch:type="MSShapeGroup"></path>
            <path d="M183.697,28.754 L183.697,21.961 L189.114,21.961 L189.114,28.754 L183.697,28.754 L183.697,28.754 Z" id="path-1-path-copy" fill="#FE0C3D" sketch:type="MSShapeGroup"></path>
        </g>
    </g>
</svg>